{
  "data": [
    {
      "ID": 1,
      "Comercio": "Mynte",
      "CUIT": "877",
      "Concepto 1": "Services",
      "Concepto 2": "Training",
      "Concepto 3": "Training",
      "Concepto 4": "Engineering",
      "Concepto 5": "Marketing",
      "Concepto 6": "Training",
      "Balance actual": 485236,
      "Activo": 0,
      "Última venta": "09/05/2021"
    },
    {
      "ID": 2,
      "Comercio": "Oodoo",
      "CUIT": "824",
      "Concepto 1": "Research and Development",
      "Concepto 2": "Services",
      "Concepto 3": "Human Resources",
      "Concepto 4": "Sales",
      "Concepto 5": "Business Development",
      "Concepto 6": "Product Management",
      "Balance actual": 382812,
      "Activo": 0,
      "Última venta": "11/12/2021"
    },
    {
      "ID": 3,
      "Comercio": "Brightdog",
      "CUIT": "6580",
      "Concepto 1": "Marketing",
      "Concepto 2": "Marketing",
      "Concepto 3": "Engineering",
      "Concepto 4": "Engineering",
      "Concepto 5": "Marketing",
      "Concepto 6": "Product Management",
      "Balance actual": 23321,
      "Activo": 1,
      "Última venta": "27/06/2021"
    },
    {
      "ID": 4,
      "Comercio": "Jabberbean",
      "CUIT": "5528",
      "Concepto 1": "Human Resources",
      "Concepto 2": "Sales",
      "Concepto 3": "Sales",
      "Concepto 4": "Product Management",
      "Concepto 5": "Marketing",
      "Concepto 6": "Engineering",
      "Balance actual": 567074,
      "Activo": 0,
      "Última venta": "12/10/2021"
    },
    {
      "ID": 5,
      "Comercio": "Wikizz",
      "CUIT": "0",
      "Concepto 1": "Business Development",
      "Concepto 2": "Legal",
      "Concepto 3": "Support",
      "Concepto 4": "Sales",
      "Concepto 5": "Product Management",
      "Concepto 6": "Business Development",
      "Balance actual": 306288,
      "Activo": 0,
      "Última venta": "07/05/2021"
    },
    {
      "ID": 6,
      "Comercio": "Wikizz",
      "CUIT": "0",
      "Concepto 1": "Support",
      "Concepto 2": "Accounting",
      "Concepto 3": "Human Resources",
      "Concepto 4": "Accounting",
      "Concepto 5": "Accounting",
      "Concepto 6": "Business Development",
      "Balance actual": 291808,
      "Activo": 1,
      "Última venta": "25/01/2022"
    },
    {
      "ID": 7,
      "Comercio": "Ainyx",
      "CUIT": "42",
      "Concepto 1": "Legal",
      "Concepto 2": "Business Development",
      "Concepto 3": "Services",
      "Concepto 4": "Engineering",
      "Concepto 5": "Support",
      "Concepto 6": "Engineering",
      "Balance actual": 777333,
      "Activo": 1,
      "Última venta": "30/10/2021"
    },
    {
      "ID": 8,
      "Comercio": "Trupe",
      "CUIT": "6",
      "Concepto 1": "Services",
      "Concepto 2": "Marketing",
      "Concepto 3": "Legal",
      "Concepto 4": "Product Management",
      "Concepto 5": "Engineering",
      "Concepto 6": "Human Resources",
      "Balance actual": 455426,
      "Activo": 1,
      "Última venta": "06/11/2021"
    },
    {
      "ID": 9,
      "Comercio": "Centidel",
      "CUIT": "85223",
      "Concepto 1": "Accounting",
      "Concepto 2": "Business Development",
      "Concepto 3": "Product Management",
      "Concepto 4": "Human Resources",
      "Concepto 5": "Sales",
      "Concepto 6": "Human Resources",
      "Balance actual": 435462,
      "Activo": 0,
      "Última venta": "11/05/2021"
    },
    {
      "ID": 10,
      "Comercio": "Voomm",
      "CUIT": "6",
      "Concepto 1": "Human Resources",
      "Concepto 2": "Marketing",
      "Concepto 3": "Engineering",
      "Concepto 4": "Support",
      "Concepto 5": "Services",
      "Concepto 6": "Accounting",
      "Balance actual": 27754,
      "Activo": 0,
      "Última venta": "16/07/2021"
    }
  ],
  "page": 1,
  "pages": 10,
  "rowsPerPage": 10,
  "total": 100
}
